Designing simulation studies in R
…
new_dat <- simulate_batting_avgs(players = 400, 
                                 beta = c(0.140, 0.015), 
                                 sigma = 1 / 500)

Data-generating function

new_dat

## # A tibble: 400 x 2
##    at_bats  hits
##      <int> <int>
## 1      676   148
## 2     1481   415
## 3      153    30
## 4      665   163
## 5        3     0
## 6       51    11
## 7       44    14
## 8     5127  1342
## 9     4101  1074
## 10       2     0
## # ... with 390 more rows
…
