A handmade clubSandwich for multi-site trials | James E. Pustejovsky
…
STAR_summary <- 
  STAR_urban %>%
  count(schoolidk)

STAR_urban %>%
  group_by(schoolidk, stark) %>%
  summarise(
    n = n(),
    wt = sum(wt)
  ) %>%
  mutate(n = sum(n)) %>%
  spread(stark, wt)

## # A tibble: 23 x 4
## # Groups:   schoolidk [23]
##    schoolidk     n regular small
##    <fct>     <int>   <dbl> <dbl>
##  1 2            52      52    52
##  2 9           120     120   120
##  3 10           51      51    51
##  4 14           34      34    34
##  5 15           55      55    55
##  6 16          105     105   105
##  7 18           79      79    79
##  8 19           99      99    99
##  9 22          129     129   129
## 10 26           49      49    49
## # ... with 13 more rows
…
